02-04 13:08:51.011: I/System.out(14479): infId : 14
02-04 13:08:51.012: I/System.out(14479): description : ***************4feb ser8
02-04 13:08:51.076: I/Web Console(14479): file system is ready at file:///android_asset/www/js/gcm_operation.js:295
02-04 13:08:51.092: E/Web Console(14479): Uncaught TypeError: Cannot read property 'rows' of undefined at file:///android_asset/www/js/gcm_operation.js:445
02-04 13:08:51.179: I/System.out(14479): msg 1$$$$$$$$$$$$$$$$$$$$$$$$$$$$$$$$$$$$$$$$:
02-04 13:08:51.181: I/System.out(14479): msg 2$$$$$$$$$$$$$$$$$$$$$$$$$$$$$$$$$$$$$$$$:
02-04 13:08:51.181: I/System.out(14479): msg 2.1 In Active download Size $$$$$$$$$$$$$$$$$$$$$$$
02-04 13:08:51.184: I/System.out(14479): msg 3$$$$$$$$$$$$$$$$$$$$$$$$$$$$$$$$$$$$$$$$:-1
02-04 13:08:51.185: I/System.out(14479): msg 4$$$$$$$$$$$$$$$$$$$$$$$$$$$$$$$$$$$$$$$$:-1
02-04 13:08:51.240: I/System.out(14479): msg 5$$$$$$$$$$$$$$$$$$$$$$$$$$$$$$$$$$$$$$$$:-1
02-04 13:08:51.244: I/System.out(14479): msg 6$$$$$$$$$$$$$$$$$$$$$$$$$$$$$$$$$$$$$$$$:-1
02-04 13:08:51.283: I/System.out(14479): msg 7$$$$$$$$$$$$$$$$$$$$$$$$$$$$$$$$$$$$$$$$:667
02-04 13:08:51.284: I/System.out(14479): msg 8$$$$$$$$$$$$$$$$$$$$$$$$$$$$$$$$$$$$$$$$:667
02-04 13:08:51.291: I/System.out(14479): msg 8$$$$$$$$$$$$$$$$$$$$$$$$$$$$$$$$$$$$$$$$:667
02-04 13:08:51.292: I/System.out(14479): End of function StartProgressTracking$$$$$$$$$$$$$$$$$$$$$$$$$$$$$$$$$$$$$$$$$$$$$$$$$$$$$$$$
02-04 13:08:51.292: W/PluginManager(14479): THREAD WARNING: exec() call to BackgroundDownload.startAsync blocked the main thread for 113ms. Plugin should use CordovaInterface.getThreadPool().
02-04 13:08:51.297: I/System.out(14479): msg 1$$$$$$$$$$$$$$$$$$$$$$$$$$$$$$$$$$$$$$$$:
02-04 13:08:51.297: I/System.out(14479): msg 2$$$$$$$$$$$$$$$$$$$$$$$$$$$$$$$$$$$$$$$$:
02-04 13:08:51.297: I/System.out(14479): msg 3$$$$$$$$$$$$$$$$$$$$$$$$$$$$$$$$$$$$$$$$:-1
02-04 13:08:51.298: I/System.out(14479): msg 4$$$$$$$$$$$$$$$$$$$$$$$$$$$$$$$$$$$$$$$$:-1
02-04 13:08:51.333: I/System.out(14479): msg 5$$$$$$$$$$$$$$$$$$$$$$$$$$$$$$$$$$$$$$$$:-1
02-04 13:08:51.335: I/System.out(14479): msg 6$$$$$$$$$$$$$$$$$$$$$$$$$$$$$$$$$$$$$$$$:-1
02-04 13:08:51.359: I/System.out(14479): msg 7$$$$$$$$$$$$$$$$$$$$$$$$$$$$$$$$$$$$$$$$:668
02-04 13:08:51.359: I/System.out(14479): msg 8$$$$$$$$$$$$$$$$$$$$$$$$$$$$$$$$$$$$$$$$:668
02-04 13:08:51.360: I/System.out(14479): msg 8$$$$$$$$$$$$$$$$$$$$$$$$$$$$$$$$$$$$$$$$:668
02-04 13:08:51.360: I/System.out(14479): End of function StartProgressTracking$$$$$$$$$$$$$$$$$$$$$$$$$$$$$$$$$$$$$$$$$$$$$$$$$$$$$$$$
02-04 13:08:51.360: W/PluginManager(14479): THREAD WARNING: exec() call to BackgroundDownload.startAsync blocked the main thread for 64ms. Plugin should use CordovaInterface.getThreadPool().
02-04 13:08:51.954: E/WebViewInputDispatcher(14479): PreventTouchStream has null event.
02-04 13:08:51.978: I/SurfaceTextureClient(14479): [STC::queueBuffer] (this:0x52012298) fps:0.05, dur:18277.90, max:18277.90, min:18277.90
02-04 13:08:51.978: I/SurfaceTextureClient(14479): [STC::queueBuffer] this:0x52012298, api:1, last queue time elapsed:18277.90
02-04 13:08:52.292: I/System.out(14479): msg 9$$$$$$$$$$$$$$$$$$$$$$$$$$$$$$$$$$$$$$$$:667
02-04 13:08:52.360: I/System.out(14479): msg 9$$$$$$$$$$$$$$$$$$$$$$$$$$$$$$$$$$$$$$$$:668
02-04 13:08:52.617: I/SurfaceTextureClient(14479): [STC::queueBuffer] (this:0x4f5279d8) fps:0.03, dur:106942.58, max:106126.72, min:11.95
02-04 13:08:52.617: I/SurfaceTextureClient(14479): [STC::queueBuffer] this:0x4f5279d8, api:2, last queue time elapsed:106126.72
02-04 13:08:52.617: I/BufferQueue(14479): [unnamed-14479-0](this:0x532b2d50,api:2) [queue] fps:0.03, dur:106942.59, max:106126.88, min:11.95
02-04 13:08:52.627: I/BufferQueue(14479): [unnamed-14479-0](this:0x532b2d50,api:2) [release] fps:0.03, dur:106295.78, max:106129.92, min:10.24
02-04 13:08:52.948: I/App(14479): WARNING: Back Button Default Behavior will be overridden.  The backbutton event will be fired!
02-04 13:08:52.951: E/Web Console(14479): Uncaught TypeError: Cannot read property 'rows' of undefined at file:///android_asset/www/js/db-operation-script.js:66
02-04 13:08:52.955: I/Web Console(14479): prefs$$$$$$$$$$$$$$$$$$$$$$$$$$$$$$$$$$$[object Object] at file:///android_asset/www/js/homebackbutton.js:44
02-04 13:08:52.957: I/Web Console(14479): prefs$$$$$$$$$$$$$$$$$$$$$$$$$$$$$$$$$$${} at file:///android_asset/www/js/homebackbutton.js:45
02-04 13:08:53.027: W/Choreographer(14479): Frame time is 0.014549 ms in the future!  Check that graphics HAL is generating vsync timestamps using the correct timebase.
02-04 13:08:53.033: I/SurfaceTextureClient(14479): [STC::queueBuffer] (this:0x52012298) fps:10.43, dur:1054.81, max:625.16, min:12.44
02-04 13:08:53.291: I/System.out(14479): msg 9$$$$$$$$$$$$$$$$$$$$$$$$$$$$$$$$$$$$$$$$:667
02-04 13:08:53.360: I/System.out(14479): msg 9$$$$$$$$$$$$$$$$$$$$$$$$$$$$$$$$$$$$$$$$:668
02-04 13:08:54.016: I/SurfaceTextureClient(14479): [STC::queueBuffer] (this:0x4f5279d8) fps:17.15, dur:1399.05, max:1009.41, min:3.28
02-04 13:08:54.016: I/BufferQueue(14479): [unnamed-14479-0](this:0x532b2d50,api:2) [queue] fps:17.15, dur:1399.03, max:1009.57, min:3.38
02-04 13:08:54.291: I/System.out(14479): msg 9$$$$$$$$$$$$$$$$$$$$$$$$$$$$$$$$$$$$$$$$:667
02-04 13:08:54.303: I/System.out(14479): msg 9.1 $$$$$$$$$$$$$$$$$$$$$$$$$$$$$$$$$$$$$$$$:5559 571258
02-04 13:08:54.360: I/System.out(14479): msg 9$$$$$$$$$$$$$$$$$$$$$$$$$$$$$$$$$$$$$$$$:668
02-04 13:08:55.291: I/System.out(14479): msg 9$$$$$$$$$$$$$$$$$$$$$$$$$$$$$$$$$$$$$$$$:667
02-04 13:08:55.301: I/System.out(14479): msg 9.1 $$$$$$$$$$$$$$$$$$$$$$$$$$$$$$$$$$$$$$$$:5559 571258
02-04 13:08:55.360: I/System.out(14479): msg 9$$$$$$$$$$$$$$$$$$$$$$$$$$$$$$$$$$$$$$$$:668
02-04 13:08:56.291: I/System.out(14479): msg 9$$$$$$$$$$$$$$$$$$$$$$$$$$$$$$$$$$$$$$$$:667
02-04 13:08:56.303: I/System.out(14479): msg 9.1 $$$$$$$$$$$$$$$$$$$$$$$$$$$$$$$$$$$$$$$$:21239 571258
02-04 13:08:56.360: I/System.out(14479): msg 9$$$$$$$$$$$$$$$$$$$$$$$$$$$$$$$$$$$$$$$$:668
02-04 13:08:56.375: I/System.out(14479): msg 9.1 $$$$$$$$$$$$$$$$$$$$$$$$$$$$$$$$$$$$$$$$:5587 69054
02-04 13:08:56.941: I/BufferQueue(14479): [unnamed-14479-0](this:0x532b2d50,api:2) [release] fps:5.56, dur:4314.14, max:3930.84, min:5.89
02-04 13:08:56.944: I/SurfaceTextureClient(14479): [STC::queueBuffer] (this:0x4f5279d8) fps:0.34, dur:2928.26, max:2928.26, min:2928.26
02-04 13:08:56.945: I/BufferQueue(14479): [unnamed-14479-0](this:0x532b2d50,api:2) [queue] fps:0.34, dur:2928.70, max:2928.70, min:2928.70
02-04 13:08:56.986: I/SurfaceTextureClient(14479): [STC::queueBuffer] (this:0x52012298) fps:4.55, dur:3952.75, max:3327.98, min:15.51
02-04 13:08:57.291: I/System.out(14479): msg 9$$$$$$$$$$$$$$$$$$$$$$$$$$$$$$$$$$$$$$$$:667
02-04 13:08:57.302: I/System.out(14479): msg 9.1 $$$$$$$$$$$$$$$$$$$$$$$$$$$$$$$$$$$$$$$$:21239 571258
02-04 13:08:57.360: I/System.out(14479): msg 9$$$$$$$$$$$$$$$$$$$$$$$$$$$$$$$$$$$$$$$$:668
02-04 13:08:57.376: I/System.out(14479): msg 9.1 $$$$$$$$$$$$$$$$$$$$$$$$$$$$$$$$$$$$$$$$:21267 69054
02-04 13:08:57.968: I/SurfaceTextureClient(14479): [STC::queueBuffer] (this:0x4f5279d8) fps:2.93, dur:1023.37, max:1007.84, min:5.64
02-04 13:08:57.968: I/BufferQueue(14479): [unnamed-14479-0](this:0x532b2d50,api:2) [queue] fps:2.93, dur:1023.01, max:1008.06, min:5.65
02-04 13:08:58.291: I/System.out(14479): msg 9$$$$$$$$$$$$$$$$$$$$$$$$$$$$$$$$$$$$$$$$:667
02-04 13:08:58.302: I/System.out(14479): msg 9.1 $$$$$$$$$$$$$$$$$$$$$$$$$$$$$$$$$$$$$$$$:84951 571258
02-04 13:08:58.360: I/System.out(14479): msg 9$$$$$$$$$$$$$$$$$$$$$$$$$$$$$$$$$$$$$$$$:668
02-04 13:08:58.372: I/System.out(14479): msg 9.1 $$$$$$$$$$$$$$$$$$$$$$$$$$$$$$$$$$$$$$$$:21267 69054
02-04 13:08:58.939: I/BufferQueue(14479): [unnamed-14479-0](this:0x532b2d50,api:2) [release] fps:2.00, dur:1997.61, max:1974.09, min:6.05
02-04 13:08:58.946: I/SurfaceTextureClient(14479): [STC::queueBuffer] (this:0x52012298) fps:0.51, dur:1960.60, max:1960.60, min:1960.60
02-04 13:08:59.291: I/System.out(14479): msg 9$$$$$$$$$$$$$$$$$$$$$$$$$$$$$$$$$$$$$$$$:667
02-04 13:08:59.303: I/System.out(14479): msg 9.1 $$$$$$$$$$$$$$$$$$$$$$$$$$$$$$$$$$$$$$$$:137079 571258
02-04 13:08:59.360: I/System.out(14479): msg 9$$$$$$$$$$$$$$$$$$$$$$$$$$$$$$$$$$$$$$$$:668
02-04 13:08:59.372: I/System.out(14479): msg 9.1 $$$$$$$$$$$$$$$$$$$$$$$$$$$$$$$$$$$$$$$$:21267 69054
02-04 13:08:59.588: I/SurfaceTextureClient(14479): [STC::queueBuffer] (this:0x4f5279d8) fps:1.23, dur:1620.85, max:974.17, min:646.68
02-04 13:08:59.589: I/BufferQueue(14479): [unnamed-14479-0](this:0x532b2d50,api:2) [queue] fps:1.23, dur:1620.99, max:973.94, min:647.05
02-04 13:09:00.291: I/System.out(14479): msg 9$$$$$$$$$$$$$$$$$$$$$$$$$$$$$$$$$$$$$$$$:667
02-04 13:09:00.303: I/System.out(14479): msg 9.1 $$$$$$$$$$$$$$$$$$$$$$$$$$$$$$$$$$$$$$$$:137079 571258
02-04 13:09:00.361: I/System.out(14479): msg 9$$$$$$$$$$$$$$$$$$$$$$$$$$$$$$$$$$$$$$$$:668
02-04 13:09:00.374: I/System.out(14479): msg 9.1 $$$$$$$$$$$$$$$$$$$$$$$$$$$$$$$$$$$$$$$$:69054 69054
02-04 13:09:00.387: I/System.out(14479): In Recieve..$$$$$$$$$$$$$$$$$$$$$$$$$$$$$$$$$$$$$$$$$$
02-04 13:09:00.401: I/System.out(14479): copying temp file in recieve method $$$$$$$$$$$$$$$$$$$$$$$$$$$$$$$$$$$$$$$$$$:668
02-04 13:09:00.401: I/System.out(14479): In copyTempFileToActualFile method *****************org.apache.cordova.backgroundDownload.BackgroundDownload$Download@41256e98
02-04 13:09:00.426: I/System.out(14479): In copyTempFileToActualFile method name changed*****************org.apache.cordova.backgroundDownload.BackgroundDownload$Download@41256e98
02-04 13:09:00.614: I/SurfaceTextureClient(14479): [STC::queueBuffer] (this:0x4f5279d8) fps:1.95, dur:1025.70, max:1018.68, min:7.02
02-04 13:09:00.614: I/BufferQueue(14479): [unnamed-14479-0](this:0x532b2d50,api:2) [queue] fps:1.95, dur:1025.41, max:1018.76, min:6.65
02-04 13:09:01.291: I/System.out(14479): msg 9$$$$$$$$$$$$$$$$$$$$$$$$$$$$$$$$$$$$$$$$:667
02-04 13:09:01.301: I/System.out(14479): msg 9.1 $$$$$$$$$$$$$$$$$$$$$$$$$$$$$$$$$$$$$$$$:137079 571258
02-04 13:09:02.291: I/System.out(14479): msg 9$$$$$$$$$$$$$$$$$$$$$$$$$$$$$$$$$$$$$$$$:667
02-04 13:09:02.302: I/System.out(14479): msg 9.1 $$$$$$$$$$$$$$$$$$$$$$$$$$$$$$$$$$$$$$$$:137079 571258
02-04 13:09:03.292: I/System.out(14479): msg 9$$$$$$$$$$$$$$$$$$$$$$$$$$$$$$$$$$$$$$$$:667
02-04 13:09:03.305: I/System.out(14479): msg 9.1 $$$$$$$$$$$$$$$$$$$$$$$$$$$$$$$$$$$$$$$$:137079 571258
02-04 13:09:04.292: I/System.out(14479): msg 9$$$$$$$$$$$$$$$$$$$$$$$$$$$$$$$$$$$$$$$$:667
02-04 13:09:04.302: I/System.out(14479): msg 9.1 $$$$$$$$$$$$$$$$$$$$$$$$$$$$$$$$$$$$$$$$:200791 571258
02-04 13:09:05.292: I/System.out(14479): msg 9$$$$$$$$$$$$$$$$$$$$$$$$$$$$$$$$$$$$$$$$:667
02-04 13:09:05.308: I/System.out(14479): msg 9.1 $$$$$$$$$$$$$$$$$$$$$$$$$$$$$$$$$$$$$$$$:421135 571258
02-04 13:09:06.292: I/System.out(14479): msg 9$$$$$$$$$$$$$$$$$$$$$$$$$$$$$$$$$$$$$$$$:667
02-04 13:09:06.304: I/System.out(14479): msg 9.1 $$$$$$$$$$$$$$$$$$$$$$$$$$$$$$$$$$$$$$$$:421135 571258
02-04 13:09:07.292: I/System.out(14479): msg 9$$$$$$$$$$$$$$$$$$$$$$$$$$$$$$$$$$$$$$$$:667
02-04 13:09:07.300: I/System.out(14479): msg 9.1 $$$$$$$$$$$$$$$$$$$$$$$$$$$$$$$$$$$$$$$$:475007 571258
02-04 13:09:08.292: I/System.out(14479): msg 9$$$$$$$$$$$$$$$$$$$$$$$$$$$$$$$$$$$$$$$$:667
02-04 13:09:08.458: I/System.out(14479): msg 9.1 $$$$$$$$$$$$$$$$$$$$$$$$$$$$$$$$$$$$$$$$:571258 571258
02-04 13:09:08.510: I/System.out(14479): In Recieve..$$$$$$$$$$$$$$$$$$$$$$$$$$$$$$$$$$$$$$$$$$
02-04 13:09:08.524: I/System.out(14479): copying temp file in recieve method $$$$$$$$$$$$$$$$$$$$$$$$$$$$$$$$$$$$$$$$$$:667
02-04 13:09:08.524: I/System.out(14479): In copyTempFileToActualFile method *****************org.apache.cordova.backgroundDownload.BackgroundDownload$Download@41219be8
02-04 13:09:08.534: I/System.out(14479): In copyTempFileToActualFile method name changed*****************org.apache.cordova.backgroundDownload.BackgroundDownload$Download@41219be8
02-04 13:09:08.568: I/System.out(14479): msg 10 In Active download Size cleanUp method $$$$$$$$$$$$$$$$$$$$$$$
